test/encoder_tb.vcd
$date
	Thu Apr 22 18:11:07 2021
$end
$version
	Icarus Verilog
$end
$timescale
	1ps
$end
$scope module encoder_tb $end
$var reg 1 ! clk $end
$var reg 1 " enablen $end
$var reg 10 # key [9:0] $end
$var integer 32 $ i [31:0] $end
$scope module DUT $end
$var wire 1 ! clk $end
$var wire 1 " enablen $end
$var wire 10 % key [9:0] $end
$var wire 1 & loadn $end
$var wire 1 ' pgt_1Hz $end
$var reg 4 ( D [3:0] $end
$scope module divider $end
$var wire 1 ! clk $end
$var wire 1 ' clk_div $end
$var reg 7 ) cnt [6:0] $end
$var reg 1 * is10 $end
$upscope $end
$upscope $end
$upscope $end
$enddefinitions $end
#0
$dumpvars
0*
b1 )
bx (
0'
1&
b0 %
b0 $
b0 #
0"
1!
$end
#500000000
0&
0!
b1 $
#1000000000
b10 )
1&
1!
b10 $
#1500000000
0&
0!
b11 $
#2000000000
b11 )
1&
1!
b100 $
#2500000000
0&
0!
b101 $
#3000000000
b100 )
1&
1!
b110 $
#3500000000
0&
0!
b111 $
#4000000000
b101 )
1&
1!
b1000 $
#4500000000
0&
0!
b1001 $
#5000000000
b110 )
1&
1!
b1010 $
#5500000000
0&
0!
b1011 $
#6000000000
b111 )
1&
1!
b1100 $
#6500000000
0&
0!
b1101 $
#7000000000
b1000 )
1&
1!
b1110 $
#7500000000
0&
0!
b1111 $
#8000000000
b1001 )
1&
1!
b10000 $
#8500000000
0&
0!
b10001 $
#9000000000
b1010 )
1&
1!
b10010 $
#9500000000
0&
0!
b10011 $
#10000000000
b1011 )
1&
1!
b10100 $
#10500000000
0&
0!
b10101 $
#11000000000
b1100 )
1&
1!
b10110 $
#11500000000
0&
0!
b10111 $
#12000000000
b1101 )
1&
1!
b11000 $
#12500000000
0&
0!
b11001 $
#13000000000
b1110 )
1&
1!
b11010 $
#13500000000
0&
0!
b11011 $
#14000000000
b1111 )
1&
1!
b11100 $
#14500000000
0&
0!
b11101 $
#15000000000
b10000 )
1&
1!
b11110 $
#15500000000
0&
0!
b11111 $
#16000000000
b10001 )
1&
1!
b100000 $
#16500000000
0&
0!
b100001 $
#17000000000
b10010 )
1&
1!
b100010 $
#17500000000
0&
0!
b100011 $
#18000000000
b10011 )
1&
1!
b100100 $
#18500000000
0&
0!
b100101 $
#19000000000
b10100 )
1&
1!
b100110 $
#19500000000
0&
0!
b100111 $
#20000000000
b10101 )
1&
1!
b101000 $
#20500000000
0&
0!
b101001 $
#21000000000
b10110 )
1&
1!
b101010 $
#21500000000
0&
0!
b101011 $
#22000000000
b10111 )
1&
1!
b101100 $
#22500000000
0&
0!
b101101 $
#23000000000
b11000 )
1&
1!
b101110 $
#23500000000
0&
0!
b101111 $
#24000000000
b11001 )
1&
1!
b110000 $
#24500000000
0&
0!
b110001 $
#25000000000
b11010 )
1&
1!
b110010 $
#25500000000
0&
0!
b110011 $
#26000000000
b11011 )
1&
1!
b110100 $
#26500000000
0&
0!
b110101 $
#27000000000
b11100 )
1&
1!
b110110 $
#27500000000
0&
0!
b110111 $
#28000000000
b11101 )
1&
1!
b111000 $
#28500000000
0&
0!
b111001 $
#29000000000
b11110 )
1&
1!
b111010 $
#29500000000
0&
0!
b111011 $
#30000000000
b11111 )
1&
1!
b111100 $
#30500000000
0&
0!
b111101 $
#31000000000
b100000 )
1&
1!
b111110 $
#31500000000
0&
0!
b111111 $
#32000000000
b100001 )
1&
1!
b1000000 $
#32500000000
0&
0!
b1000001 $
#33000000000
b100010 )
1&
1!
b1000010 $
#33500000000
0&
0!
b1000011 $
#34000000000
b100011 )
1&
1!
b1000100 $
#34500000000
0&
0!
b1000101 $
#35000000000
b100100 )
1&
1!
b1000110 $
#35500000000
0&
0!
b1000111 $
#36000000000
b100101 )
1&
1!
b1001000 $
#36500000000
0&
0!
b1001001 $
#37000000000
b100110 )
1&
1!
b1001010 $
#37500000000
0&
0!
b1001011 $
#38000000000
b100111 )
1&
1!
b1001100 $
#38500000000
0&
0!
b1001101 $
#39000000000
b101000 )
1&
1!
b1001110 $
#39500000000
0&
0!
b1001111 $
#40000000000
b101001 )
1&
1!
b1010000 $
#40500000000
0&
0!
b1010001 $
#41000000000
b101010 )
1&
1!
b1010010 $
#41500000000
0&
0!
b1010011 $
#42000000000
b101011 )
1&
1!
b1010100 $
#42500000000
0&
0!
b1010101 $
#43000000000
b101100 )
1&
1!
b1010110 $
#43500000000
0&
0!
b1010111 $
#44000000000
b101101 )
1&
1!
b1011000 $
#44500000000
0&
0!
b1011001 $
#45000000000
b101110 )
1&
1!
b1011010 $
#45500000000
0&
0!
b1011011 $
#46000000000
b101111 )
1&
1!
b1011100 $
#46500000000
0&
0!
b1011101 $
#47000000000
b110000 )
1&
1!
b1011110 $
#47500000000
0&
0!
b1011111 $
#48000000000
b110001 )
1&
1!
b1100000 $
#48500000000
0&
0!
b1100001 $
#49000000000
b110010 )
1&
1!
b1100010 $
#49500000000
0&
0!
b1100011 $
#50000000000
b110011 )
1&
1!
b1100100 $
#50500000000
0&
0!
b1100101 $
#51000000000
b110100 )
1&
1!
b1100110 $
#51500000000
0&
0!
b1100111 $
#52000000000
b110101 )
1&
1!
b1101000 $
#52500000000
0&
0!
b1101001 $
#53000000000
b110110 )
1&
1!
b1101010 $
#53500000000
0&
0!
b1101011 $
#54000000000
b110111 )
1&
1!
b1101100 $
#54500000000
0&
0!
b1101101 $
#55000000000
b111000 )
1&
1!
b1101110 $
#55500000000
0&
0!
b1101111 $
#56000000000
b111001 )
1&
1!
b1110000 $
#56500000000
0&
0!
b1110001 $
#57000000000
b111010 )
1&
1!
b1110010 $
#57500000000
0&
0!
b1110011 $
#58000000000
b111011 )
1&
1!
b1110100 $
#58500000000
0&
0!
b1110101 $
#59000000000
b111100 )
1&
1!
b1110110 $
#59500000000
0&
0!
b1110111 $
#60000000000
b111101 )
1&
1!
b1111000 $
#60500000000
0&
0!
b1111001 $
#61000000000
b111110 )
1&
1!
b1111010 $
#61500000000
0&
0!
b1111011 $
#62000000000
b111111 )
1&
1!
b1111100 $
#62500000000
0&
0!
b1111101 $
#63000000000
b1000000 )
1&
1!
b1111110 $
#63500000000
0&
0!
b1111111 $
#64000000000
b1000001 )
1&
1!
b10000000 $
#64500000000
0&
0!
b10000001 $
#65000000000
b1000010 )
1&
1!
b10000010 $
#65500000000
0&
0!
b10000011 $
#66000000000
b1000011 )
1&
1!
b10000100 $
#66500000000
0&
0!
b10000101 $
#67000000000
b1000100 )
1&
1!
b10000110 $
#67500000000
0&
0!
b10000111 $
#68000000000
b1000101 )
1&
1!
b10001000 $
#68500000000
0&
0!
b10001001 $
#69000000000
b1000110 )
1&
1!
b10001010 $
#69500000000
0&
0!
b10001011 $
#70000000000
b1000111 )
1&
1!
b10001100 $
#70500000000
0&
0!
b10001101 $
#71000000000
b1001000 )
1&
1!
b10001110 $
#71500000000
0&
0!
b10001111 $
#72000000000
b1001001 )
1&
1!
b10010000 $
#72500000000
0&
0!
b10010001 $
#73000000000
b1001010 )
1&
1!
b10010010 $
#73500000000
0&
0!
b10010011 $
#74000000000
b1001011 )
1&
1!
b10010100 $
#74500000000
0&
0!
b10010101 $
#75000000000
b1001100 )
1&
1!
b10010110 $
#75500000000
0&
0!
b10010111 $
#76000000000
b1001101 )
1&
1!
b10011000 $
#76500000000
0&
0!
b10011001 $
#77000000000
b1001110 )
1&
1!
b10011010 $
#77500000000
0&
0!
b10011011 $
#78000000000
b1001111 )
1&
1!
b10011100 $
#78500000000
0&
0!
b10011101 $
#79000000000
b1010000 )
1&
1!
b10011110 $
#79500000000
0&
0!
b10011111 $
#80000000000
b1010001 )
1&
1!
b10100000 $
#80500000000
0&
0!
b10100001 $
#81000000000
b1010010 )
1&
1!
b10100010 $
#81500000000
0&
0!
b10100011 $
#82000000000
b1010011 )
1&
1!
b10100100 $
#82500000000
0&
0!
b10100101 $
#83000000000
b1010100 )
1&
1!
b10100110 $
#83500000000
0&
0!
b10100111 $
#84000000000
b1010101 )
1&
1!
b10101000 $
#84500000000
0&
0!
b10101001 $
#85000000000
b1010110 )
1&
1!
b10101010 $
#85500000000
0&
0!
b10101011 $
#86000000000
b1010111 )
1&
1!
b10101100 $
#86500000000
0&
0!
b10101101 $
#87000000000
b1011000 )
1&
1!
b10101110 $
#87500000000
0&
0!
b10101111 $
#88000000000
b1011001 )
1&
1!
b10110000 $
#88500000000
0&
0!
b10110001 $
#89000000000
b1011010 )
1&
1!
b10110010 $
#89500000000
0&
0!
b10110011 $
#90000000000
b1011011 )
1&
1!
b10110100 $
#90500000000
0&
0!
b10110101 $
#91000000000
b1011100 )
1&
1!
b10110110 $
#91500000000
0&
0!
b10110111 $
#92000000000
b1011101 )
1&
1!
b10111000 $
#92500000000
0&
0!
b10111001 $
#93000000000
b1011110 )
1&
1!
b10111010 $
#93500000000
0&
0!
b10111011 $
#94000000000
b1011111 )
1&
1!
b10111100 $
#94500000000
0&
0!
b10111101 $
#95000000000
b1100000 )
1&
1!
b10111110 $
#95500000000
0&
0!
b10111111 $
#96000000000
b1100001 )
1&
1!
b11000000 $
#96500000000
0&
0!
b11000001 $
#97000000000
b1100010 )
1&
1!
b11000010 $
#97500000000
0&
0!
b11000011 $
#98000000000
b1100011 )
1&
1!
b11000100 $
#98500000000
0&
0!
b11000101 $
#99000000000
1'
1*
b0 )
1&
1!
b11000110 $
#99500000000
0&
0!
b11000111 $
#100000000000
0'
0*
b1 )
1&
1!
b11001000 $
#100500000000
0&
0!
b11001001 $
#101000000000
b10 )
1&
1!
b11001010 $
#101500000000
0&
0!
b11001011 $
#102000000000
b11 )
1&
1!
b11001100 $
#102500000000
0&
0!
b11001101 $
#103000000000
b100 )
1&
1!
b11001110 $
#103500000000
0&
0!
b11001111 $
#104000000000
b101 )
1&
1!
b11010000 $
#104500000000
0&
0!
b11010001 $
#105000000000
b110 )
1&
1!
b11010010 $
#105500000000
0&
0!
b11010011 $
#106000000000
b111 )
1&
1!
b11010100 $
#106500000000
0&
0!
b11010101 $
#107000000000
b1000 )
1&
1!
b11010110 $
#107500000000
0&
0!
b11010111 $
#108000000000
b1001 )
1&
1!
b11011000 $
#108500000000
0&
0!
b11011001 $
#109000000000
b1010 )
1&
1!
b11011010 $
#109500000000
0&
0!
b11011011 $
#110000000000
b1011 )
1&
1!
b11011100 $
#110500000000
0&
0!
b11011101 $
#111000000000
b1100 )
1&
1!
b11011110 $
#111500000000
0&
0!
b11011111 $
#112000000000
b1101 )
1&
1!
b11100000 $
#112500000000
0&
0!
b11100001 $
#113000000000
b1110 )
1&
1!
b11100010 $
#113500000000
0&
0!
b11100011 $
#114000000000
b1111 )
1&
1!
b11100100 $
#114500000000
0&
0!
b11100101 $
#115000000000
b10000 )
1&
1!
b11100110 $
#115500000000
0&
0!
b11100111 $
#116000000000
b10001 )
1&
1!
b11101000 $
#116500000000
0&
0!
b11101001 $
#117000000000
b10010 )
1&
1!
b11101010 $
#117500000000
0&
0!
b11101011 $
#118000000000
b10011 )
1&
1!
b11101100 $
#118500000000
0&
0!
b11101101 $
#119000000000
b10100 )
1&
1!
b11101110 $
#119500000000
0&
0!
b11101111 $
#120000000000
b10101 )
1&
1!
b11110000 $
#120500000000
0&
0!
b11110001 $
#121000000000
b10110 )
1&
1!
b11110010 $
#121500000000
0&
0!
b11110011 $
#122000000000
b10111 )
1&
1!
b11110100 $
#122500000000
0&
0!
b11110101 $
#123000000000
b11000 )
1&
1!
b11110110 $
#123500000000
0&
0!
b11110111 $
#124000000000
b11001 )
1&
1!
b11111000 $
#124500000000
0&
0!
b11111001 $
#125000000000
b11010 )
1&
1!
b11111010 $
#125500000000
0&
0!
b11111011 $
#126000000000
b11011 )
1&
1!
b11111100 $
#126500000000
0&
0!
b11111101 $
#127000000000
b11100 )
1&
1!
b11111110 $
#127500000000
0&
0!
b11111111 $
#128000000000
b11101 )
1&
1!
b100000000 $
#128500000000
0&
0!
b100000001 $
#129000000000
b11110 )
1&
1!
b100000010 $
#129500000000
0&
0!
b100000011 $
#130000000000
b11111 )
1&
1!
b100000100 $
#130500000000
0&
0!
b100000101 $
#131000000000
b100000 )
1&
1!
b100000110 $
#131500000000
0&
0!
b100000111 $
#132000000000
b100001 )
1&
1!
b100001000 $
#132500000000
0&
0!
b100001001 $
#133000000000
b100010 )
1&
1!
b100001010 $
#133500000000
0&
0!
b100001011 $
#134000000000
b100011 )
1&
1!
b100001100 $
#134500000000
0&
0!
b100001101 $
#135000000000
b100100 )
1&
1!
b100001110 $
#135500000000
0&
0!
b100001111 $
#136000000000
b100101 )
1&
1!
b100010000 $
#136500000000
0&
0!
b100010001 $
#137000000000
b100110 )
1&
1!
b100010010 $
#137500000000
0&
0!
b100010011 $
#138000000000
b100111 )
1&
1!
b100010100 $
#138500000000
0&
0!
b100010101 $
#139000000000
b101000 )
1&
1!
b100010110 $
#139500000000
0&
0!
b100010111 $
#140000000000
b101001 )
1&
1!
b100011000 $
#140500000000
0&
0!
b100011001 $
#141000000000
b101010 )
1&
1!
b100011010 $
#141500000000
0&
0!
b100011011 $
#142000000000
b101011 )
1&
1!
b100011100 $
#142500000000
0&
0!
b100011101 $
#143000000000
b101100 )
1&
1!
b100011110 $
#143500000000
0&
0!
b100011111 $
#144000000000
b101101 )
1&
1!
b100100000 $
#144500000000
0&
0!
b100100001 $
#145000000000
b101110 )
1&
1!
b100100010 $
#145500000000
0&
0!
b100100011 $
#146000000000
b101111 )
1&
1!
b100100100 $
#146500000000
0&
0!
b100100101 $
#147000000000
b110000 )
1&
1!
b100100110 $
#147500000000
0&
0!
b100100111 $
#148000000000
b110001 )
1&
1!
b100101000 $
#148500000000
0&
0!
b100101001 $
#149000000000
b110010 )
1&
1!
b100101010 $
#149500000000
0&
0!
b100101011 $
#150000000000
b110011 )
1&
1!
b100101100 $
#150500000000
0&
0!
b100101101 $
#151000000000
b110100 )
1&
1!
b100101110 $
#151500000000
0&
0!
b100101111 $
#152000000000
b110101 )
1&
1!
b100110000 $
#152500000000
0&
0!
b100110001 $
#153000000000
b110110 )
1&
1!
b100110010 $
#153500000000
0&
0!
b100110011 $
#154000000000
b110111 )
1&
1!
b100110100 $
#154500000000
0&
0!
b100110101 $
#155000000000
b111000 )
1&
1!
b100110110 $
#155500000000
0&
0!
b100110111 $
#156000000000
b111001 )
1&
1!
b100111000 $
#156500000000
0&
0!
b100111001 $
#157000000000
b111010 )
1&
1!
b100111010 $
#157500000000
0&
0!
b100111011 $
#158000000000
b111011 )
1&
1!
b100111100 $
#158500000000
0&
0!
b100111101 $
#159000000000
b111100 )
1&
1!
b100111110 $
#159500000000
0&
0!
b100111111 $
#160000000000
b111101 )
1&
1!
b101000000 $
#160500000000
0&
0!
b101000001 $
#161000000000
b111110 )
1&
1!
b101000010 $
#161500000000
0&
0!
b101000011 $
#162000000000
b111111 )
1&
1!
b101000100 $
#162500000000
0&
0!
b101000101 $
#163000000000
b1000000 )
1&
1!
b101000110 $
#163500000000
0&
0!
b101000111 $
#164000000000
b1000001 )
1&
1!
b101001000 $
#164500000000
0&
0!
b101001001 $
#165000000000
b1000010 )
1&
1!
b101001010 $
#165500000000
0&
0!
b101001011 $
#166000000000
b1000011 )
1&
1!
b101001100 $
#166500000000
0&
0!
b101001101 $
#167000000000
b1000100 )
1&
1!
b101001110 $
#167500000000
0&
0!
b101001111 $
#168000000000
b1000101 )
1&
1!
b101010000 $
#168500000000
0&
0!
b101010001 $
#169000000000
b1000110 )
1&
1!
b101010010 $
#169500000000
0&
0!
b101010011 $
#170000000000
b1000111 )
1&
1!
b101010100 $
#170500000000
0&
0!
b101010101 $
#171000000000
b1001000 )
1&
1!
b101010110 $
#171500000000
0&
0!
b101010111 $
#172000000000
b1001001 )
1&
1!
b101011000 $
#172500000000
0&
0!
b101011001 $
#173000000000
b1001010 )
1&
1!
b101011010 $
#173500000000
0&
0!
b101011011 $
#174000000000
b1001011 )
1&
1!
b101011100 $
#174500000000
0&
0!
b101011101 $
#175000000000
b1001100 )
1&
1!
b101011110 $
#175500000000
0&
0!
b101011111 $
#176000000000
b1001101 )
1&
1!
b101100000 $
#176500000000
0&
0!
b101100001 $
#177000000000
b1001110 )
1&
1!
b101100010 $
#177500000000
0&
0!
b101100011 $
#178000000000
b1001111 )
1&
1!
b101100100 $
#178500000000
0&
0!
b101100101 $
#179000000000
b1010000 )
1&
1!
b101100110 $
#179500000000
0&
0!
b101100111 $
#180000000000
b1010001 )
1&
1!
b101101000 $
#180500000000
0&
0!
b101101001 $
#181000000000
b1010010 )
1&
1!
b101101010 $
#181500000000
0&
0!
b101101011 $
#182000000000
b1010011 )
1&
1!
b101101100 $
#182500000000
0&
0!
b101101101 $
#183000000000
b1010100 )
1&
1!
b101101110 $
#183500000000
0&
0!
b101101111 $
#184000000000
b1010101 )
1&
1!
b101110000 $
#184500000000
0&
0!
b101110001 $
#185000000000
b1010110 )
1&
1!
b101110010 $
#185500000000
0&
0!
b101110011 $
#186000000000
b1010111 )
1&
1!
b101110100 $
#186500000000
0&
0!
b101110101 $
#187000000000
b1011000 )
1&
1!
b101110110 $
#187500000000
0&
0!
b101110111 $
#188000000000
b1011001 )
1&
1!
b101111000 $
#188500000000
0&
0!
b101111001 $
#189000000000
b1011010 )
1&
1!
b101111010 $
#189500000000
0&
0!
b101111011 $
#190000000000
b1011011 )
1&
1!
b101111100 $
#190500000000
0&
0!
b101111101 $
#191000000000
b1011100 )
1&
1!
b101111110 $
#191500000000
0&
0!
b101111111 $
#192000000000
b1011101 )
1&
1!
b110000000 $
#192500000000
0&
0!
b110000001 $
#193000000000
b1011110 )
1&
1!
b110000010 $
#193500000000
0&
0!
b110000011 $
#194000000000
b1011111 )
1&
1!
b110000100 $
#194500000000
0&
0!
b110000101 $
#195000000000
b1100000 )
1&
1!
b110000110 $
#195500000000
0&
0!
b110000111 $
#196000000000
b1100001 )
1&
1!
b110001000 $
#196500000000
0&
0!
b110001001 $
#197000000000
b1100010 )
1&
1!
b110001010 $
#197500000000
0&
0!
b110001011 $
#198000000000
b1100011 )
1&
1!
b110001100 $
#198500000000
0&
0!
b110001101 $
#199000000000
1'
1*
b0 )
1&
1!
b110001110 $
#199500000000
0&
0!
b110001111 $
#200000000000
0'
0*
b1 )
1&
1!
b110010000 $
#200500000000
0&
0!
b110010001 $
#201000000000
b10 )
1&
1!
b110010010 $
#201500000000
0&
0!
b110010011 $
#202000000000
b11 )
1&
1!
b110010100 $
#202500000000
0&
0!
b110010101 $
#203000000000
b100 )
1&
1!
b110010110 $
#203500000000
0&
0!
b110010111 $
#204000000000
b101 )
1&
1!
b110011000 $
#204500000000
0&
0!
b110011001 $
#205000000000
b110 )
1&
1!
b110011010 $
#205500000000
0&
0!
b110011011 $
#206000000000
b111 )
1&
1!
b110011100 $
#206500000000
0&
0!
b110011101 $
#207000000000
b1000 )
1&
1!
b110011110 $
#207500000000
0&
0!
b110011111 $
#208000000000
b1001 )
1&
1!
b110100000 $
#208500000000
0&
0!
b110100001 $
#209000000000
b1010 )
1&
1!
b110100010 $
#209500000000
0&
0!
b110100011 $
#210000000000
b1011 )
1&
1!
b110100100 $
#210500000000
0&
0!
b110100101 $
#211000000000
b1100 )
1&
1!
b110100110 $
#211500000000
0&
0!
b110100111 $
#212000000000
b1101 )
1&
1!
b110101000 $
#212500000000
0&
0!
b110101001 $
#213000000000
b1110 )
1&
1!
b110101010 $
#213500000000
0&
0!
b110101011 $
#214000000000
b1111 )
1&
1!
b110101100 $
#214500000000
0&
0!
b110101101 $
#215000000000
b10000 )
1&
1!
b110101110 $
#215500000000
0&
0!
b110101111 $
#216000000000
b10001 )
1&
1!
b110110000 $
#216500000000
0&
0!
b110110001 $
#217000000000
b10010 )
1&
1!
b110110010 $
#217500000000
0&
0!
b110110011 $
#218000000000
b10011 )
1&
1!
b110110100 $
#218500000000
0&
0!
b110110101 $
#219000000000
b10100 )
1&
1!
b110110110 $
#219500000000
0&
0!
b110110111 $
#220000000000
b10101 )
1&
1!
b110111000 $
#220500000000
0&
0!
b110111001 $
#221000000000
b10110 )
1&
1!
b110111010 $
#221500000000
0&
0!
b110111011 $
#222000000000
b10111 )
1&
1!
b110111100 $
#222500000000
0&
0!
b110111101 $
#223000000000
b11000 )
1&
1!
b110111110 $
#223500000000
0&
0!
b110111111 $
#224000000000
b11001 )
1&
1!
b111000000 $
#224500000000
0&
0!
b111000001 $
#225000000000
b11010 )
1&
1!
b111000010 $
#225500000000
0&
0!
b111000011 $
#226000000000
b11011 )
1&
1!
b111000100 $
#226500000000
0&
0!
b111000101 $
#227000000000
b11100 )
1&
1!
b111000110 $
#227500000000
0&
0!
b111000111 $
#228000000000
b11101 )
1&
1!
b111001000 $
#228500000000
0&
0!
b111001001 $
#229000000000
b11110 )
1&
1!
b111001010 $
#229500000000
0&
0!
b111001011 $
#230000000000
b11111 )
1&
1!
b111001100 $
#230500000000
0&
0!
b111001101 $
#231000000000
b100000 )
1&
1!
b111001110 $
#231500000000
0&
0!
b111001111 $
#232000000000
b100001 )
1&
1!
b111010000 $
#232500000000
0&
0!
b111010001 $
#233000000000
b100010 )
1&
1!
b111010010 $
#233500000000
0&
0!
b111010011 $
#234000000000
b100011 )
1&
1!
b111010100 $
#234500000000
0&
0!
b111010101 $
#235000000000
b100100 )
1&
1!
b111010110 $
#235500000000
0&
0!
b111010111 $
#236000000000
b100101 )
1&
1!
b111011000 $
#236500000000
0&
0!
b111011001 $
#237000000000
b100110 )
1&
1!
b111011010 $
#237500000000
0&
0!
b111011011 $
#238000000000
b100111 )
1&
1!
b111011100 $
#238500000000
0&
0!
b111011101 $
#239000000000
b101000 )
1&
1!
b111011110 $
#239500000000
0&
0!
b111011111 $
#240000000000
b101001 )
1&
1!
b111100000 $
#240500000000
0&
0!
b111100001 $
#241000000000
b101010 )
1&
1!
b111100010 $
#241500000000
0&
0!
b111100011 $
#242000000000
b101011 )
1&
1!
b111100100 $
#242500000000
0&
0!
b111100101 $
#243000000000
b101100 )
1&
1!
b111100110 $
#243500000000
0&
0!
b111100111 $
#244000000000
b101101 )
1&
1!
b111101000 $
#244500000000
0&
0!
b111101001 $
#245000000000
b101110 )
1&
1!
b111101010 $
#245500000000
0&
0!
b111101011 $
#246000000000
b101111 )
1&
1!
b111101100 $
#246500000000
0&
0!
b111101101 $
#247000000000
b110000 )
1&
1!
b111101110 $
#247500000000
0&
0!
b111101111 $
#248000000000
b110001 )
1&
1!
b111110000 $
#248500000000
0&
0!
b111110001 $
#249000000000
b110010 )
1&
1!
b111110010 $
#249500000000
0&
0!
b111110011 $
#250000000000
b110011 )
1&
1!
b111110100 $
#250500000000
0&
0!
b111110101 $
#251000000000
b110100 )
1&
1!
b111110110 $
#251500000000
0&
0!
b111110111 $
#252000000000
b110101 )
1&
1!
b111111000 $
#252500000000
0&
0!
b111111001 $
#253000000000
b110110 )
1&
1!
b111111010 $
#253500000000
0&
0!
b111111011 $
#254000000000
b110111 )
1&
1!
b111111100 $
#254500000000
0&
0!
b111111101 $
#255000000000
b111000 )
1&
1!
b111111110 $
#255500000000
0&
0!
b111111111 $
#256000000000
b111001 )
1&
1!
b1000000000 $
#256500000000
0&
0!
b1000000001 $
#257000000000
b111010 )
1&
1!
b1000000010 $
#257500000000
0&
0!
b1000000011 $
#258000000000
b111011 )
1&
1!
b1000000100 $
#258500000000
0&
0!
b1000000101 $
#259000000000
b111100 )
1&
1!
b1000000110 $
#259500000000
0&
0!
b1000000111 $
#260000000000
b111101 )
1&
1!
b1000001000 $
#260500000000
0&
0!
b1000001001 $
#261000000000
b111110 )
1&
1!
b1000001010 $
#261500000000
0&
0!
b1000001011 $
#262000000000
b111111 )
1&
1!
b1000001100 $
#262500000000
0&
0!
b1000001101 $
#263000000000
b1000000 )
1&
1!
b1000001110 $
#263500000000
0&
0!
b1000001111 $
#264000000000
b1000001 )
1&
1!
b1000010000 $
#264500000000
0&
0!
b1000010001 $
#265000000000
b1000010 )
1&
1!
b1000010010 $
#265500000000
0&
0!
b1000010011 $
#266000000000
b1000011 )
1&
1!
b1000010100 $
#266500000000
0&
0!
b1000010101 $
#267000000000
b1000100 )
1&
1!
b1000010110 $
#267500000000
0&
0!
b1000010111 $
#268000000000
b1000101 )
1&
1!
b1000011000 $
#268500000000
0&
0!
b1000011001 $
#269000000000
b1000110 )
1&
1!
b1000011010 $
#269500000000
0&
0!
b1000011011 $
#270000000000
b1000111 )
1&
1!
b1000011100 $
#270500000000
0&
0!
b1000011101 $
#271000000000
b1001000 )
1&
1!
b1000011110 $
#271500000000
0&
0!
b1000011111 $
#272000000000
b1001001 )
1&
1!
b1000100000 $
#272500000000
0&
0!
b1000100001 $
#273000000000
b1001010 )
1&
1!
b1000100010 $
#273500000000
0&
0!
b1000100011 $
#274000000000
b1001011 )
1&
1!
b1000100100 $
#274500000000
0&
0!
b1000100101 $
#275000000000
b1001100 )
1&
1!
b1000100110 $
#275500000000
0&
0!
b1000100111 $
#276000000000
b1001101 )
1&
1!
b1000101000 $
#276500000000
0&
0!
b1000101001 $
#277000000000
b1001110 )
1&
1!
b1000101010 $
#277500000000
0&
0!
b1000101011 $
#278000000000
b1001111 )
1&
1!
b1000101100 $
#278500000000
0&
0!
b1000101101 $
#279000000000
b1010000 )
1&
1!
b1000101110 $
#279500000000
0&
0!
b1000101111 $
#280000000000
b1010001 )
1&
1!
b1000110000 $
#280500000000
0&
0!
b1000110001 $
#281000000000
b1010010 )
1&
1!
b1000110010 $
#281500000000
0&
0!
b1000110011 $
#282000000000
b1010011 )
1&
1!
b1000110100 $
#282500000000
0&
0!
b1000110101 $
#283000000000
b1010100 )
1&
1!
b1000110110 $
#283500000000
0&
0!
b1000110111 $
#284000000000
b1010101 )
1&
1!
b1000111000 $
#284500000000
0&
0!
b1000111001 $
#285000000000
b1010110 )
1&
1!
b1000111010 $
#285500000000
0&
0!
b1000111011 $
#286000000000
b1010111 )
1&
1!
b1000111100 $
#286500000000
0&
0!
b1000111101 $
#287000000000
b1011000 )
1&
1!
b1000111110 $
#287500000000
0&
0!
b1000111111 $
#288000000000
b1011001 )
1&
1!
b1001000000 $
#288500000000
0&
0!
b1001000001 $
#289000000000
b1011010 )
1&
1!
b1001000010 $
#289500000000
0&
0!
b1001000011 $
#290000000000
b1011011 )
1&
1!
b1001000100 $
#290500000000
0&
0!
b1001000101 $
#291000000000
b1011100 )
1&
1!
b1001000110 $
#291500000000
0&
0!
b1001000111 $
#292000000000
b1011101 )
1&
1!
b1001001000 $
#292500000000
0&
0!
b1001001001 $
#293000000000
b1011110 )
1&
1!
b1001001010 $
#293500000000
0&
0!
b1001001011 $
#294000000000
b1011111 )
1&
1!
b1001001100 $
#294500000000
0&
0!
b1001001101 $
#295000000000
b1100000 )
1&
1!
b1001001110 $
#295500000000
0&
0!
b1001001111 $
#296000000000
b1100001 )
1&
1!
b1001010000 $
#296500000000
0&
0!
b1001010001 $
#297000000000
b1100010 )
1&
1!
b1001010010 $
#297500000000
0&
0!
b1001010011 $
#298000000000
b1100011 )
1&
1!
b1001010100 $
#298500000000
0&
0!
b1001010101 $
#299000000000
1'
1*
b0 )
1&
1!
b1001010110 $
#299500000000
0&
0!
b1001010111 $
#300000000000
0'
0*
b1 )
1&
1!
b1001011000 $
#300500000000
0&
0!
b1001011001 $
#301000000000
b10 )
1&
1!
b1001011010 $
#301500000000
0&
0!
b1001011011 $
#302000000000
b11 )
1&
1!
b1001011100 $
#302500000000
0&
0!
b1001011101 $
#303000000000
b100 )
1&
1!
b1001011110 $
#303500000000
0&
0!
b1001011111 $
#304000000000
b101 )
1&
1!
b1001100000 $
#304500000000
0&
0!
b1001100001 $
#305000000000
b110 )
1&
1!
b1001100010 $
#305500000000
0&
0!
b1001100011 $
#306000000000
b111 )
1&
1!
b1001100100 $
#306500000000
0&
0!
b1001100101 $
#307000000000
b1000 )
1&
1!
b1001100110 $
#307500000000
0&
0!
b1001100111 $
#308000000000
b1001 )
1&
1!
b1001101000 $
#308500000000
0&
0!
b1001101001 $
#309000000000
b1010 )
1&
1!
b1001101010 $
#309500000000
0&
0!
b1001101011 $
#310000000000
b1011 )
1&
1!
b1001101100 $
#310500000000
0&
0!
b1001101101 $
#311000000000
b1100 )
1&
1!
b1001101110 $
#311500000000
0&
0!
b1001101111 $
#312000000000
b1101 )
1&
1!
b1001110000 $
#312500000000
0&
0!
b1001110001 $
#313000000000
b1110 )
1&
1!
b1001110010 $
#313500000000
0&
0!
b1001110011 $
#314000000000
b1111 )
1&
1!
b1001110100 $
#314500000000
0&
0!
b1001110101 $
#315000000000
b10000 )
1&
1!
b1001110110 $
#315500000000
0&
0!
b1001110111 $
#316000000000
b10001 )
1&
1!
b1001111000 $
#316500000000
0&
0!
b1001111001 $
#317000000000
b10010 )
1&
1!
b1001111010 $
#317500000000
0&
0!
b1001111011 $
#318000000000
b10011 )
1&
1!
b1001111100 $
#318500000000
0&
0!
b1001111101 $
#319000000000
b10100 )
1&
1!
b1001111110 $
#319500000000
0&
0!
b1001111111 $
#320000000000
b10101 )
1&
1!
b1010000000 $
#320500000000
0&
0!
b1010000001 $
#321000000000
b10110 )
1&
1!
b1010000010 $
#321500000000
0&
0!
b1010000011 $
#322000000000
b10111 )
1&
1!
b1010000100 $
#322500000000
0&
0!
b1010000101 $
#323000000000
b11000 )
1&
1!
b1010000110 $
#323500000000
0&
0!
b1010000111 $
#324000000000
b11001 )
1&
1!
b1010001000 $
#324500000000
0&
0!
b1010001001 $
#325000000000
b11010 )
1&
1!
b1010001010 $
#325500000000
0&
0!
b1010001011 $
#326000000000
b11011 )
1&
1!
b1010001100 $
#326500000000
0&
0!
b1010001101 $
#327000000000
b11100 )
1&
1!
b1010001110 $
#327500000000
0&
0!
b1010001111 $
